module gitlab.com/horizon-scale-community/the-seed/user-service

go 1.17

require (
	google.golang.org/grpc v1.42.0
	google.golang.org/protobuf v1.27.1
	gorm.io/driver/postgres v1.2.3
	gorm.io/gorm v1.22.4
)

require (
	github.com/golang/protobuf v1.5.0 // indirect
	github.com/jackc/chunkreader/v2 v2.0.1 // indirect
	github.com/jackc/pgconn v1.10.1 // indirect
	github.com/jackc/pgio v1.0.0 // indirect
	github.com/jackc/pgpassfile v1.0.0 // indirect
	github.com/jackc/pgproto3/v2 v2.2.0 // indirect
	github.com/jackc/pgservicefile v0.0.0-20200714003250-2b9c44734f2b // indirect
	github.com/jackc/pgtype v1.9.0 // indirect
	github.com/jackc/pgx/v4 v4.14.0 // indirect
	github.com/jinzhu/inflection v1.0.0 // indirect
	github.com/jinzhu/now v1.1.4 // indirect
	golang.org/x/crypto v0.0.0-20210921155107-089bfa567519 // indirect
	golang.org/x/net v0.0.0-20210226172049-e18ecbb05110 // indirect
	golang.org/x/sys v0.0.0-20210615035016-665e8c7367d1 // indirect
	golang.org/x/text v0.3.7 // indirect
	google.golang.org/genproto v0.0.0-20200526211855-cb27e3aa2013 // indirect
)
